# setting LC_ALL to "C"
# --> Including file '/workspace/GAUDI/GAUDI_future/GaudiExamples/options/ControlFlow/SuperAlgDynamicGraph.py'
# --- Configured Control Flow Expression:
# (MySuperAlg('s1') >> MySuperAlg('s2'))
# ---
# <-- End of file '/workspace/GAUDI/GAUDI_future/GaudiExamples/options/ControlFlow/SuperAlgDynamicGraph.py'
# applying configuration of GaudiExamplesCommonConf
# /***** User GaudiExamplesCommonConf/GaudiExamplesCommonConf ****************************************
# |-OutputLevel = 3
# |-DummyEvents = -1
# \----- (End of User GaudiExamplesCommonConf/GaudiExamplesCommonConf) -------------------------------
ApplicationMgr    SUCCESS
====================================================================================================================================
                                                   Welcome to ApplicationMgr (GaudiCoreSvc v4r1)
                                          running on pcphlbc16 on Fri Jul  8 17:39:19 2016
====================================================================================================================================
ApplicationMgr       INFO Application Manager Configured successfully
StatusCodeSvc        INFO initialize
ChronoStatSvc        INFO  Number of skipped events for MemStat-1
seq_3                INFO Member list: GaudiSequencer/seq_1, GaudiSequencer/seq_2
RndmGenSvc.Engine    INFO Generator engine type:CLHEP::RanluxEngine
RndmGenSvc.Engine    INFO Current Seed:1234567 Luxury:3
RndmGenSvc           INFO Using Random engine:HepRndm::Engine<CLHEP::RanluxEngine>
ToolSvc.Sequenc...   INFO This machine has a speed about   2.72 times the speed of a 2.8 GHz Xeon.
seq_1                INFO Member list: GaudiSequencer/seq_0, EventCounter/s1_Counter
seq_0                INFO Member list: Prescaler/s1_Prescaler, HelloWorld/s1_HW
s1_Prescaler         INFO s1_Prescaler:Prescaler::Initialize - pass:  'PercentPass':50.000000
s1_HW                INFO initializing....
s1_Counter           INFO s1_Counter:EventCounter::initialize - Frequency:  'Frequency':1
seq_2                INFO Member list: Prescaler/s2_Prescaler, EventCounter/s2_Counter
s2_Prescaler        DEBUG Property update for OutputLevel : new value = 2
s2_Prescaler        DEBUG Initialize base class GaudiCommon<Algorithm>
s2_Prescaler        DEBUG could not locate CounterSummarySvc, no counter summary will be made
s2_Prescaler        DEBUG List of ALL properties of Prescaler/s2_Prescaler  #properties = 36
s2_Prescaler        DEBUG Property ['Name': Value] =  'PercentPass':75.000000
s2_Prescaler        DEBUG Property ['Name': Value] =  'RequireObjects':[  ]
s2_Prescaler        DEBUG Property ['Name': Value] =  'VetoObjects':[  ]
s2_Prescaler        DEBUG Property ['Name': Value] =  'StatEntityList':[  ]
s2_Prescaler        DEBUG Property ['Name': Value] =  'CounterList':[ '.*' ]
s2_Prescaler        DEBUG Property ['Name': Value] =  'UseEfficiencyRowFormat':True
s2_Prescaler        DEBUG Property ['Name': Value] =  'EfficiencyRowFormat': |*%|-48.48s|%|50t||%|10d| |%|11.5g| |(%|#9.6g| +- %|-#9.6g|)%%|   -------   |   -------   |
s2_Prescaler        DEBUG Property ['Name': Value] =  'RegularRowFormat': | %|-48.48s|%|50t||%|10d| |%|11.7g| |%|#11.5g| |%|#11.5g| |%|#12.5g| |%|#12.5g| |
s2_Prescaler        DEBUG Property ['Name': Value] =  'StatTableHeader': |    Counter                                      |     #     |    sum     | mean/eff^* | rms/err^*  |     min     |     max     |
s2_Prescaler        DEBUG Property ['Name': Value] =  'RootInTES':
s2_Prescaler        DEBUG Property ['Name': Value] =  'Context':
s2_Prescaler        DEBUG Property ['Name': Value] =  'TypePrint':True
s2_Prescaler        DEBUG Property ['Name': Value] =  'StatPrint':True
s2_Prescaler        DEBUG Property ['Name': Value] =  'PropertiesPrint':False
s2_Prescaler        DEBUG Property ['Name': Value] =  'ErrorsPrint':True
s2_Prescaler        DEBUG Property ['Name': Value] =  'NeededResources':[  ]
s2_Prescaler        DEBUG Property ['Name': Value] =  'Cardinality':1
s2_Prescaler        DEBUG Property ['Name': Value] =  'RegisterForContextService':True
s2_Prescaler        DEBUG Property ['Name': Value] =  'MonitorService':MonitorSvc
s2_Prescaler        DEBUG Property ['Name': Value] =  'Timeline':False
s2_Prescaler        DEBUG Property ['Name': Value] =  'AuditStop':False
s2_Prescaler        DEBUG Property ['Name': Value] =  'AuditStart':False
s2_Prescaler        DEBUG Property ['Name': Value] =  'AuditEndRun':False
s2_Prescaler        DEBUG Property ['Name': Value] =  'AuditBeginRun':False
s2_Prescaler        DEBUG Property ['Name': Value] =  'AuditFinalize':False
s2_Prescaler        DEBUG Property ['Name': Value] =  'AuditExecute':False
s2_Prescaler        DEBUG Property ['Name': Value] =  'AuditRestart':False
s2_Prescaler        DEBUG Property ['Name': Value] =  'AuditReinitialize':False
s2_Prescaler        DEBUG Property ['Name': Value] =  'AuditInitialize':False
s2_Prescaler        DEBUG Property ['Name': Value] =  'AuditAlgorithms':False
s2_Prescaler        DEBUG Property ['Name': Value] =  'ExtraOutputs':[]
s2_Prescaler        DEBUG Property ['Name': Value] =  'ExtraInputs':[]
s2_Prescaler        DEBUG Property ['Name': Value] =  'ErrorCounter':0
s2_Prescaler        DEBUG Property ['Name': Value] =  'ErrorMax':1
s2_Prescaler        DEBUG Property ['Name': Value] =  'Enable':True
s2_Prescaler        DEBUG Property ['Name': Value] =  'OutputLevel':2
s2_Prescaler         INFO s2_Prescaler:Prescaler::Initialize - pass:  'PercentPass':75.000000
s2_Prescaler        DEBUG input handles: 0
s2_Prescaler        DEBUG output handles: 0
s2_Prescaler        DEBUG Data Deps for s2_Prescaler
s2_Counter          DEBUG Property update for OutputLevel : new value = 2
s2_Counter           INFO s2_Counter:EventCounter::initialize - Frequency:  'Frequency':1
s2_Counter          DEBUG input handles: 0
s2_Counter          DEBUG output handles: 0
s2_Counter          DEBUG Data Deps for s2_Counter
EventLoopMgr         INFO Control Flow Expression:
EventLoopMgr         INFO seq(seq(seq(Prescaler('s1_Prescaler') & HelloWorld('s1_HW')) & EventCounter('s1_Counter')) & seq(Prescaler('s2_Prescaler') & EventCounter('s2_Counter')))
EventLoopMgr      WARNING Unable to locate service "EventSelector"
EventLoopMgr      WARNING No events will be processed from external input.
HistogramPersis...WARNING Histograms saving not required.
ApplicationMgr       INFO Application Manager Initialized successfully
ApplicationMgr       INFO Application Manager Started successfully
s1_HW                INFO beginning new run....
s1_Prescaler         INFO s1_Prescaler:Prescaler::execute - filter failed
s2_Prescaler         INFO s2_Prescaler:Prescaler::execute - filter failed
s1_Prescaler         INFO s1_Prescaler:Prescaler::execute - filter passed
s1_HW                INFO executing....
s1_Counter           INFO s1_Counter:EventCounter::execute - seen events: 1
s2_Prescaler         INFO s2_Prescaler:Prescaler::execute - filter passed
s2_Counter           INFO s2_Counter:EventCounter::execute - seen events: 1
s1_Prescaler         INFO s1_Prescaler:Prescaler::execute - filter failed
s2_Prescaler         INFO s2_Prescaler:Prescaler::execute - filter passed
s2_Counter           INFO s2_Counter:EventCounter::execute - seen events: 2
s1_Prescaler         INFO s1_Prescaler:Prescaler::execute - filter passed
s1_HW                INFO executing....
s1_Counter           INFO s1_Counter:EventCounter::execute - seen events: 2
s2_Prescaler         INFO s2_Prescaler:Prescaler::execute - filter passed
s2_Counter           INFO s2_Counter:EventCounter::execute - seen events: 3
s1_Prescaler         INFO s1_Prescaler:Prescaler::execute - filter failed
s2_Prescaler         INFO s2_Prescaler:Prescaler::execute - filter failed
s1_Prescaler         INFO s1_Prescaler:Prescaler::execute - filter passed
s1_HW                INFO executing....
s1_Counter           INFO s1_Counter:EventCounter::execute - seen events: 3
s2_Prescaler         INFO s2_Prescaler:Prescaler::execute - filter passed
s2_Counter           INFO s2_Counter:EventCounter::execute - seen events: 4
s1_Prescaler         INFO s1_Prescaler:Prescaler::execute - filter failed
s2_Prescaler         INFO s2_Prescaler:Prescaler::execute - filter passed
s2_Counter           INFO s2_Counter:EventCounter::execute - seen events: 5
s1_Prescaler         INFO s1_Prescaler:Prescaler::execute - filter passed
s1_HW                INFO executing....
s1_Counter           INFO s1_Counter:EventCounter::execute - seen events: 4
s2_Prescaler         INFO s2_Prescaler:Prescaler::execute - filter passed
s2_Counter           INFO s2_Counter:EventCounter::execute - seen events: 6
s1_Prescaler         INFO s1_Prescaler:Prescaler::execute - filter failed
s2_Prescaler         INFO s2_Prescaler:Prescaler::execute - filter failed
s1_Prescaler         INFO s1_Prescaler:Prescaler::execute - filter passed
s1_HW                INFO executing....
s1_Counter           INFO s1_Counter:EventCounter::execute - seen events: 5
s2_Prescaler         INFO s2_Prescaler:Prescaler::execute - filter passed
s2_Counter           INFO s2_Counter:EventCounter::execute - seen events: 7
s1_HW                INFO ending new run....
ApplicationMgr       INFO Application Manager Stopped successfully
s1_Prescaler         INFO s1_Prescaler:Prescaler::finalize - total events: 10, passed events: 5
s1_HW                INFO finalizing....
s1_Counter           INFO s1_Counter:EventCounter::finalize - total events: 5
s2_Prescaler         INFO s2_Prescaler:Prescaler::finalize - total events: 10, passed events: 7
s2_Prescaler        DEBUG Finalize base class GaudiAlgorithm
s2_Prescaler        DEBUG Tools to release :
s2_Prescaler        DEBUG Services to release :
s2_Counter           INFO s2_Counter:EventCounter::finalize - total events: 7
EventLoopMgr         INFO Histograms converted successfully according to request.
ToolSvc              INFO Removing all tools created by ToolSvc
ToolSvc.Sequenc...   INFO --------------------------------------------------------------------------------------------------
ToolSvc.Sequenc...   INFO This machine has a speed about   2.72 times the speed of a 2.8 GHz Xeon.
ToolSvc.Sequenc...   INFO Algorithm          (millisec) |    <user> |   <clock> |      min       max    sigma | entries | total (s) |
ToolSvc.Sequenc...   INFO --------------------------------------------------------------------------------------------------
ToolSvc.Sequenc...   INFO seq_3                         |     0.000 |     0.056 |    0.031       0.1     0.02 |      10 |     0.001 |
ToolSvc.Sequenc...   INFO   seq_1                       |     0.000 |     0.028 |    0.014       0.0     0.01 |      10 |     0.000 |
ToolSvc.Sequenc...   INFO     seq_0                     |     0.000 |     0.019 |    0.012       0.0     0.01 |      10 |     0.000 |
ToolSvc.Sequenc...   INFO       s1_Prescaler            |     0.000 |     0.011 |    0.010       0.0     0.00 |      10 |     0.000 |
ToolSvc.Sequenc...   INFO       s1_HW                   |     0.000 |     0.009 |    0.008       0.0     0.00 |       5 |     0.000 |
ToolSvc.Sequenc...   INFO     s1_Counter                |     0.000 |     0.012 |    0.012       0.0     0.00 |       5 |     0.000 |
ToolSvc.Sequenc...   INFO   seq_2                       |     0.000 |     0.026 |    0.016       0.0     0.01 |      10 |     0.000 |
ToolSvc.Sequenc...   INFO     s2_Prescaler              |     0.000 |     0.014 |    0.012       0.0     0.00 |      10 |     0.000 |
ToolSvc.Sequenc...   INFO     s2_Counter                |     0.000 |     0.012 |    0.010       0.0     0.00 |       7 |     0.000 |
ToolSvc.Sequenc...   INFO --------------------------------------------------------------------------------------------------
*****Chrono*****     INFO ****************************************************************************************************
*****Chrono*****     INFO  The Final CPU consumption ( Chrono ) Table (ordered)
*****Chrono*****     INFO ****************************************************************************************************
ChronoStatSvc        INFO Time User   : Tot=  436 [ms]                                             #=  1
*****Chrono*****     INFO ****************************************************************************************************
ChronoStatSvc.f...   INFO  Service finalized successfully
ApplicationMgr       INFO Application Manager Finalized successfully
ApplicationMgr       INFO Application Manager Terminated successfully
